***************************************************************
关于源码项目的相关问题可以联系我们交流：                       
  联系QQ: 254540457     联系QQ: 344245001                       
  我们网站: www.shuangyulin.com                                    
  QQ交流群一：179640010   QQ交流群二：143834285      
***************************************************************

社会和科技的不断进步带来更便利的生活，计算机技术也越来越平民化。二十一世纪是数据时代，各种信息经过统计分析都可以得到想要的结果，所以也可以更好的为人们工作、生活服务。房屋是生活条件的一部分，所以需求量非常大。把计算机技术和房地产销售相结合可以更符合现代、用户的要求，实现更为方便的销售房屋的方式。

本基于JAVA的房地产销售管理系统采用JAVA语言和Vue技术，框架采用Springboot，搭配Mysql数据库，运行在Idea里。本基于JAVA的房地产销售管理系统提供管理员、客户、销售经理三种角色的服务。总的功能包括房产的查询、预约、评价、购买和论坛管理等。本系统可以帮助管理员、销售经理更新房产信息和管理预约、购买信息，帮助客户实现在线的预约方式，并可以实现购买。本系统采用成熟技术开发可以完成房地产销售管理的相关工作。

关键词：在线预约；购置房产；JAVA语言；Mysql数据库；论坛管理